{
    "count": 18728,
    "next": "https://api.spaceflightnewsapi.net/v4/articles/?format=json&limit=24&offset=24",
    "previous": null,
    "results": [
      {
        "id": 21730,
        "title": "NorthStar raises $15 million for debris-tracking satellites waiting on Rocket Lab",
        "url": "https://spacenews.com/northstar-raises-15-million-for-debris-tracking-satellites-waiting-on-rocket-lab/",
        "image_url": "https://i0.wp.com/spacenews.com/wp-content/uploads/2022/03/ses-northstar.jpg",
        "news_site": "SpaceNews",
        "summary": "WASHINGTON — NorthStar Earth and Space has raised another $15 million to support its first four satellites for tracking objects in orbit, the Canadian company said Dec. 6 as it waits on Rocket Lab to get back to flight so they can launch on a future mission.",
        "published_at": "2023-12-06T19:38:06Z",
        "updated_at": "2023-12-06T19:39:15.735000Z",
        "featured": false,
        "launches": [
          
        ],
        "events": [
          
        ]
      },
      {
        "id": 21729,
        "title": "Launch Roundup: SpaceX continues toward 100 launch goal",
        "url": "https://www.nasaspaceflight.com/2023/12/launch-roundup-120923/",
        "image_url": "https://www.nasaspaceflight.com/wp-content/uploads/2023/11/03-30-23-SDA-Tranche-0-1170x780.jpg",
        "news_site": "NASASpaceflight",
        "summary": "As SpaceX continues toward its goal of launching 100 times in 2023, the company is planning to launch three Starlink missions this week — two from Space Launch Complex (SLC) 40 at the Cape Canaveral Space Force Station (CCSFS) in Florida and the third from SLC-4 East at Vandenberg Space Force Base (VSFB) in California. Launching from Launch Complex 39A on Sunday, Falcon Heavy will place the USSF-52 mission into a currently unknown orbit.",
        "published_at": "2023-12-06T18:04:06Z",
        "updated_at": "2023-12-06T18:09:29.785000Z",
        "featured": false,
        "launches": [
          
        ],
        "events": [
          
        ]
      },
      {
        "id": 21728,
        "title": "Daily Telescope: A super-hot jet 1,000 light-years from Earth",
        "url": "https://arstechnica.com/space/2023/12/daily-telescope-a-super-hot-jet-1000-light-years-from-earth/",
        "image_url": "https://cdn.arstechnica.net/wp-content/uploads/2023/12/potm2311a.jpg",
        "news_site": "Arstechnica",
        "summary": "Molecules in the outflows from the young stars are excited by the turbulent conditions.",
        "published_at": "2023-12-06T13:00:31Z",
        "updated_at": "2023-12-06T13:09:24.457000Z",
        "featured": false,
        "launches": [
          
        ],
        "events": [
          
        ]
      },
      {
        "id": 21727,
        "title": "Capella to use SpaceX for two Acadia satellite launches",
        "url": "https://spacenews.com/capella-to-use-spacex-for-two-acadia-satellite-launches/",
        "image_url": "https://i0.wp.com/spacenews.com/wp-content/uploads/2023/08/Capella-Space-Acadia-01-FINAL-Branded-Blog-1536x1022-1.jpg",
        "news_site": "SpaceNews",
        "summary": "Capella Space will launch two radar imaging satellites on SpaceX rideshare missions after an Electron launch failure disrupted its deployment plans.",
        "published_at": "2023-12-06T10:49:16Z",
        "updated_at": "2023-12-06T12:31:44.854000Z",
        "featured": false,
        "launches": [
          {
            "launch_id": "d61c53c4-669a-44cd-a905-cea38e8e21d6",
            "provider": "Launch Library 2"
          },
          {
            "launch_id": "c6344720-1266-4697-90ab-943a6f1760a5",
            "provider": "Launch Library 2"
          }
        ],
        "events": [
          
        ]
      },
      {
        "id": 21726,
        "title": "China launches internet technology test satellite from sea barge",
        "url": "https://spacenews.com/china-launches-internet-technology-test-satellite-from-sea-barge/",
        "image_url": "https://i0.wp.com/spacenews.com/wp-content/uploads/2023/12/jielong3-satellite-internet-test-southchinasea-5dec2023-ourspace1.jpg",
        "news_site": "SpaceNews",
        "summary": "China launched a new internet technology experiment satellite from a sea platform Tuesday, apparently continuing tests for a low Earth orbit megaconstellation.",
        "published_at": "2023-12-06T10:30:42Z",
        "updated_at": "2023-12-06T10:39:16.227000Z",
        "featured": false,
        "launches": [
          
        ],
        "events": [
          
        ]
      },
      {
        "id": 21725,
        "title": "OSIRIS-REx parachute deployment affected by wiring error",
        "url": "https://spacenews.com/osiris-rex-parachute-deployment-affected-by-wiring-error/",
        "image_url": "https://i0.wp.com/spacenews.com/wp-content/uploads/2023/12/orex-chute.jpg",
        "news_site": "SpaceNews",
        "summary": "The drogue parachute on the OSIRIS-REx sample return capsule failed to deploy properly because of a design error, a flaw that did not prevent a safe landing of the capsule.",
        "published_at": "2023-12-06T09:04:41Z",
        "updated_at": "2023-12-06T10:06:52.183000Z",
        "featured": false,
        "launches": [
          {
            "launch_id": "0bcc6850-4c51-4b08-aa19-0b3753351b9b",
            "provider": "Launch Library 2"
          }
        ],
        "events": [
          
        ]
      },
      {
        "id": 21724,
        "title": "SSC Returns Esrange Launch Tower to Service After Fire",
        "url": "https://europeanspaceflight.com/ssc-returns-esrange-launch-tower-to-service-after-fire/",
        "image_url": "https://europeanspaceflight.com/wp-content/uploads/2023/12/MAIUS-2-Launch-SSC-Returns-Esrange-Launch-Tower-to-Service-After-Fire.jpg",
        "news_site": "European Spaceflight",
        "summary": "The Swedish Space Corporation has successfully launched the first rocket from its newly refurbished Skylark launch tower that was damaged by a fire in 2021. MAIUS-2 was launched at 07:30 UTC on 2 December aboard a two-stage Brazilian VSB-30 sounding rocket. The rocket reached a maximum altitude of 234 kilometres. The payload was successfully recovered […]\nThe post SSC Returns Esrange Launch Tower to Service After Fire appeared first on European Spaceflight.",
        "published_at": "2023-12-06T08:46:33Z",
        "updated_at": "2023-12-06T08:50:22.980000Z",
        "featured": false,
        "launches": [
          
        ],
        "events": [
          
        ]
      },
      {
        "id": 21722,
        "title": "Stratolaunch Welcomes The Spirit Of Mojave To Their Fleet",
        "url": "https://tlpnetwork.com/news/2023/12/stratolaunch-welcomes-the-spirit-of-mojave",
        "image_url": "https://cdn.tlpnetwork.com/articles/2023/1701837438262.jpeg",
        "news_site": "The Launch Pad",
        "summary": "Goodbye Virgin Orbit's, Cosmic Girl; Hello Stratolaunch's, The Spirit of Mojave",
        "published_at": "2023-12-06T04:29:00Z",
        "updated_at": "2023-12-06T04:40:23.052000Z",
        "featured": false,
        "launches": [
          
        ],
        "events": [
          
        ]
      },
      {
        "id": 21721,
        "title": "ISRO Returns Chandrayaan-3 Prop Module To Earth Orbit As Lunar Return Tech Demo",
        "url": "https://tlpnetwork.com/news/2023/12/isro-returns-chandrayaan-3-prop-module-to-earth-orbit-as-lunar-return-tech-demo",
        "image_url": "https://cdn.tlpnetwork.com/articles/2023/1701820878123.jpg",
        "news_site": "The Launch Pad",
        "summary": "The Indian Space Research Organisation (ISRO) has made a surprise announcement, announcing they have successfully brought the Chandrayann-3 Propulsion Module back to Earth orbit.",
        "published_at": "2023-12-05T23:59:00Z",
        "updated_at": "2023-12-06T07:06:51.916000Z",
        "featured": false,
        "launches": [
          {
            "launch_id": "78f7c31d-4f29-482a-96d1-390b460a0a02",
            "provider": "Launch Library 2"
          }
        ],
        "events": [
          
        ]
      },
      {
        "id": 21720,
        "title": "Stratolaunch Conducts Captive Carry Flight of Talon-A Hypersonic Vehicle",
        "url": "https://tlpnetwork.com/news/2023/12/stratolaunch-conducts-captive-carry-flight-of-talon-a-hypersonic-vehicle",
        "image_url": "https://cdn.tlpnetwork.com/articles/2023/1701819385106.png",
        "news_site": "The Launch Pad",
        "summary": "Stratolaunch, LLC has successfully completed a captive carry flight featuring the first powered Talon-A hypersonic vehicle, TA-1.",
        "published_at": "2023-12-05T23:35:00Z",
        "updated_at": "2023-12-05T23:40:25.329000Z",
        "featured": false,
        "launches": [
          
        ],
        "events": [
          
        ]
      },
      {
        "id": 21719,
        "title": "NASA’s Hubble Space Telescope Operations Suspended Due To Gyro Issue",
        "url": "https://tlpnetwork.com/news/2023/12/nasa-hubble-space-telescope-operations-suspended-due-to-gyro-issue",
        "image_url": "https://cdn.tlpnetwork.com/articles/2023/1701818831652.webp",
        "news_site": "The Launch Pad",
        "summary": "NASA iconic space observatory, the Hubble Space Telescope has suspended science operations and is in safe mode due to a problem with one of its three operational gyroscopes.",
        "published_at": "2023-12-05T23:15:00Z",
        "updated_at": "2023-12-06T07:07:10.155000Z",
        "featured": false,
        "launches": [
          {
            "launch_id": "9d2a03ff-1fb2-4519-bcdb-ba9f84e61d3d",
            "provider": "Launch Library 2"
          }
        ],
        "events": [
          
        ]
      },
      {
        "id": 21718,
        "title": "NRO signs agreements with five  commercial suppliers of electro-optical imagery",
        "url": "https://spacenews.com/nro-signs-agreements-with-five-commercial-suppliers-of-electro-optical-imagery/",
        "image_url": "https://i0.wp.com/spacenews.com/wp-content/uploads/2021/06/rsz_r65390_39_satellite-image-pleiades-isles-scilly-uk-20200311-2.jpg",
        "news_site": "SpaceNews",
        "summary": "WASHINGTON — The National Reconnaissance Office announced Dec. 5 it has signed agreements with five commercial providers of electro-optical satellite imagery, including four startups that are just starting to build […]",
        "published_at": "2023-12-05T22:01:55Z",
        "updated_at": "2023-12-05T22:09:15.795000Z",
        "featured": false,
        "launches": [
          
        ],
        "events": [
          
        ]
      },
      {
        "id": 21717,
        "title": "The 2023 SpaceNews Icon Awards: Winners",
        "url": "https://spacenews.com/the-2023-spacenews-icon-awards-winners/",
        "image_url": "https://i0.wp.com/spacenews.com/wp-content/uploads/2023/12/Logo-03v4.png",
        "news_site": "SpaceNews",
        "summary": "SpaceNews established the awards in 2017 to recognize and celebrate the people, programs and institutions shaping a rapidly evolving global space economy. Chosen by SpaceNews journalists with invaluable input from […]",
        "published_at": "2023-12-05T20:25:08Z",
        "updated_at": "2023-12-05T20:29:17.307000Z",
        "featured": false,
        "launches": [
          
        ],
        "events": [
          
        ]
      },
      {
        "id": 21707,
        "title": "SpaceX plans key NASA demonstration for next Starship launch",
        "url": "https://www.cnbc.com/2023/12/05/spacex-plans-nasa-refueling-demonstration-for-next-starship-launch.html",
        "image_url": "https://image.cnbcfm.com/api/v1/image/107335907-17002480692023-11-16t010341z_458439619_rc20e4ador8b_rtrmadp_0_space-exploration-starship.jpeg",
        "news_site": "CNBC",
        "summary": "SpaceX could attempt a key demonstration for NASA during the third test flight of its towering Starship rocket, according to the federal agency.",
        "published_at": "2023-12-05T16:47:07Z",
        "updated_at": "2023-12-05T16:50:25.179000Z",
        "featured": false,
        "launches": [
          
        ],
        "events": [
          
        ]
      },
      {
        "id": 21706,
        "title": "Aalyria wins ESA contract and establishes European arm",
        "url": "https://spacenews.com/aalyria-wins-esa-contract-and-establishes-european-arm/",
        "image_url": "https://spacenews.com/wp-content/uploads/2023/03/rsz_screen_shot_2023-03-12_at_91957_pm-300x169.png",
        "news_site": "SpaceNews",
        "summary": "Aalyria won a European Space Agency contract to develop an orchestration system for space-based, airborne, maritime and ground-based nodes.",
        "published_at": "2023-12-05T15:13:47Z",
        "updated_at": "2023-12-05T15:19:23.606000Z",
        "featured": false,
        "launches": [
          
        ],
        "events": [
          
        ]
      },
      {
        "id": 21705,
        "title": "India reveals that it has returned lunar spacecraft to Earth orbit",
        "url": "https://arstechnica.com/space/2023/12/india-reveals-that-it-has-returned-lunar-spacecraft-to-earth-orbit/",
        "image_url": "https://cdn.arstechnica.net/wp-content/uploads/2023/07/c3isro.jpg",
        "news_site": "Arstechnica",
        "summary": "India now credibly has the third most advanced deep-space program in the world.",
        "published_at": "2023-12-05T14:56:59Z",
        "updated_at": "2023-12-05T15:22:34.129000Z",
        "featured": false,
        "launches": [
          {
            "launch_id": "78f7c31d-4f29-482a-96d1-390b460a0a02",
            "provider": "Launch Library 2"
          }
        ],
        "events": [
          
        ]
      },
      {
        "id": 21704,
        "title": "Daily Telescope: An ancient galaxy behind a veil of dust",
        "url": "https://arstechnica.com/space/2023/12/daily-telescope-an-ancient-galaxy-behind-a-veil-of-dust/",
        "image_url": "https://cdn.arstechnica.net/wp-content/uploads/2023/12/aztecc71_f277w_f444w_almaB6_rgb_1200x800-1200x800-c-default.png",
        "news_site": "Arstechnica",
        "summary": "\"This thing is a real monster.\"",
        "published_at": "2023-12-05T13:05:05Z",
        "updated_at": "2023-12-05T13:19:37.009000Z",
        "featured": false,
        "launches": [
          
        ],
        "events": [
          
        ]
      },
      {
        "id": 21703,
        "title": "Orbit Fab and Australia’s Space Machines Company cooperate on in-orbit servicing",
        "url": "https://spacenews.com/orbit-fab-and-australias-space-machines-company-cooperate-on-in-orbit-servicing/",
        "image_url": "https://spacenews.com/wp-content/uploads/2023/12/rsz_space_machines_companys_freshly_built_optimus_orbital_servicing_vehicle_osv_will_utilize_orbit_fabs_fiducial_markers_during_rendezvous_and_docking_missions_in_space-1-300x200.jpg",
        "news_site": "SpaceNews",
        "summary": "Australian in-space servicing startup Space Machines Company announced plans Dec. 5 to work with U.S. on-orbit refueling startup Orbit Fab to validate key technologies.",
        "published_at": "2023-12-05T13:00:00Z",
        "updated_at": "2023-12-05T13:09:15.700000Z",
        "featured": false,
        "launches": [
          
        ],
        "events": [
          
        ]
      },
      {
        "id": 21702,
        "title": "Data rights limitations affecting NASA technology development",
        "url": "https://spacenews.com/data-rights-limitations-affecting-nasa-technology-development/",
        "image_url": "https://spacenews.com/wp-content/uploads/2023/05/bluemoon-sld-300x169.jpg",
        "news_site": "SpaceNews",
        "summary": "Development of a key capability NASA needs for exploration of the moon and Mars is being hindered by limited access to data from companies working on those capabilities.",
        "published_at": "2023-12-05T12:41:41Z",
        "updated_at": "2023-12-05T12:49:25.892000Z",
        "featured": false,
        "launches": [
          
        ],
        "events": [
          
        ]
      },
      {
        "id": 21701,
        "title": "India returns Chandrayaan-3 propulsion module to Earth orbit",
        "url": "https://spacenews.com/india-returns-chandrayaan-3-propulsion-module-to-earth-orbit/",
        "image_url": "https://spacenews.com/wp-content/uploads/2023/12/cyyan3-propmodule-300x178.jpg",
        "news_site": "SpaceNews",
        "summary": "The spacecraft that transported the Chandrayaan-3 lander to the moon has returned to Earth orbit, a demonstration of technologies to support a future Indian lunar sample return mission.",
        "published_at": "2023-12-05T03:51:19Z",
        "updated_at": "2023-12-05T07:27:10.897000Z",
        "featured": false,
        "launches": [
          {
            "launch_id": "78f7c31d-4f29-482a-96d1-390b460a0a02",
            "provider": "Launch Library 2"
          }
        ],
        "events": [
          
        ]
      },
      {
        "id": 21700,
        "title": "SatixFy handed stock exchange delisting warning",
        "url": "https://spacenews.com/satixfy-handed-stock-exchange-delisting-warning/",
        "image_url": "https://spacenews.com/wp-content/uploads/2019/04/256-elements-array-300x146.jpg",
        "news_site": "SpaceNews",
        "summary": "SatixFy is the latest space firm to face being kicked off a stock exchange after shares plummeted following a merger with a Special Purpose Acquisition Company (SPAC), a fast-track alternative to traditional initial public offerings of stock.",
        "published_at": "2023-12-04T22:46:54Z",
        "updated_at": "2023-12-04T22:49:15.427000Z",
        "featured": false,
        "launches": [
          
        ],
        "events": [
          
        ]
      },
      {
        "id": 21699,
        "title": "Industry report: Demand for satellites is rising but not skyrocketing",
        "url": "https://spacenews.com/industry-report-demand-for-satellites-is-rising-but-not-skyrocketing/",
        "image_url": "https://spacenews.com/wp-content/uploads/2023/12/GAZjdfAbEAAfQpE-300x200.jpeg",
        "news_site": "SpaceNews",
        "summary": "A new report predicts that around 20,000 new satellites will launch by the end of the decade — a more conservative forecast compared to other sky-high projections.",
        "published_at": "2023-12-04T22:15:29Z",
        "updated_at": "2023-12-04T22:19:15.602000Z",
        "featured": false,
        "launches": [
          
        ],
        "events": [
          
        ]
      },
      {
        "id": 21698,
        "title": "York reveals latest commercial space-as-a-service mission",
        "url": "https://spacenews.com/york-reveals-latest-commercial-space-as-a-service-mission/",
        "image_url": "https://spacenews.com/wp-content/uploads/2023/12/rsz_img_3394-300x164.jpg",
        "news_site": "SpaceNews",
        "summary": "York Space Systems established contact within three hours of the Dec. 1 launch of a commercial space-as-a-service mission for CACI International.",
        "published_at": "2023-12-04T19:01:29Z",
        "updated_at": "2023-12-04T19:09:15.807000Z",
        "featured": false,
        "launches": [
          
        ],
        "events": [
          
        ]
      },
      {
        "id": 21696,
        "title": "What happens in Vega didn’t stay in Vega, as key rocket parts went missing",
        "url": "https://arstechnica.com/space/2023/12/italian-rocket-maker-has-a-problem-key-parts-of-final-vega-booster-were-trashed/",
        "image_url": "https://cdn.arstechnica.net/wp-content/uploads/2023/10/vv23.jpeg",
        "news_site": "Arstechnica",
        "summary": "There's a valuable payload riding on the final Vega rocket launch.",
        "published_at": "2023-12-04T16:27:34Z",
        "updated_at": "2023-12-05T07:27:26.955000Z",
        "featured": false,
        "launches": [
          {
            "launch_id": "ccbd07da-d3c7-4b22-a5ee-cb190f6e06b0",
            "provider": "Launch Library 2"
          }
        ],
        "events": [
          
        ]
      }
    ]
  }